
GameTile board[0][0]:# - [Edge [weight=1.0, source=#, destination=0], Edge [weight=1.0, source=#, destination=A]]

GameTile board[0][1]:0 - [Edge [weight=1.0, source=0, destination=#], Edge [weight=1.0, source=0, destination=#], Edge [weight=1.0, source=0, destination= ]]

GameTile board[0][2]:# - [Edge [weight=1.0, source=#, destination=0], Edge [weight=1.0, source=#, destination=*]]

GameTile board[1][0]:A - [Edge [weight=1.0, source=A, destination=#], Edge [weight=1.0, source=A, destination= ], Edge [weight=1.0, source=A, destination= ]]

GameTile board[1][1]:  - [Edge [weight=1.0, source= , destination=0], Edge [weight=1.0, source= , destination=A], Edge [weight=1.0, source= , destination=*], Edge [weight=1.0, source= , destination=#]]

GameTile board[1][2]:* - [Edge [weight=1.0, source=*, destination=#], Edge [weight=1.0, source=*, destination= ], Edge [weight=1.0, source=*, destination= ]]

GameTile board[2][0]:  - [Edge [weight=1.0, source= , destination=A], Edge [weight=1.0, source= , destination=#]]

GameTile board[2][1]:# - [Edge [weight=1.0, source=#, destination= ], Edge [weight=1.0, source=#, destination= ], Edge [weight=1.0, source=#, destination= ]]

GameTile board[2][2]:  - [Edge [weight=1.0, source= , destination=*], Edge [weight=1.0, source= , destination=#]]
#0A
#  
*# 

[A]